…
Correcting the dates which weren’t interpreted for 2023 but should’ve
been e.g. `30-03-23` was parsed as `2030-03-23` instead of `2023-03-30`.
We perform this in several steps:

> Splitting the data frame into 2 - 2023 and non-2023 (wrong) dates 1.
> Filter observations where Date is for 2023 or not available

``` r
df_2023 <- customer_sales |> 
  filter(year(Date) == 2023 | is.na(Date)) |> print()
```

    ## # A tibble: 54 × 8
    ##    OrderID Date                CustomerID ProductID Quantity UnitPrice
    ##      <dbl> <dttm>              <chr>      <chr>        <dbl>     <dbl>
    ##  1    1001 2023-02-03 00:00:00 C001       P114             3       600
    ##  2    1003 2023-01-30 00:00:00 C008       P108             4       300
    ##  3    1004 2023-02-19 00:00:00 C010       P106             5       200
    ##  4    1005 2023-02-07 00:00:00 C008       P108             2       300
    ##  5    1006 2023-01-13 00:00:00 C018       P103             2       300
    ##  6    1007 2023-01-22 00:00:00 C009       P101             4       100
    ##  7    1008 2023-03-08 00:00:00 C007       P111             2      -600
    ##  8    1009 2023-03-08 00:00:00 C007       P108             1       500
    ##  9    1010 2023-01-16 00:00:00 C010       P110             4      -800
    ## 10    1011 2023-03-20 00:00:00 C011       P106             3       400
    ## # ℹ 44 more rows
    ## # ℹ 2 more variables: TotalPrice <dbl>, Region <chr>
…
5.  Converting them back to standard format (YYYY-MM-DD)
6.  Combining the 2 data frames back together

``` r
customer_sales <- bind_rows(df_2023, df_filtered) |> print()
```

    ## # A tibble: 70 × 8
    ##    OrderID Date                CustomerID ProductID Quantity UnitPrice
    ##      <dbl> <dttm>              <chr>      <chr>        <dbl>     <dbl>
    ##  1    1001 2023-02-03 00:00:00 C001       P114             3       600
    ##  2    1003 2023-01-30 00:00:00 C008       P108             4       300
    ##  3    1004 2023-02-19 00:00:00 C010       P106             5       200
    ##  4    1005 2023-02-07 00:00:00 C008       P108             2       300
    ##  5    1006 2023-01-13 00:00:00 C018       P103             2       300
    ##  6    1007 2023-01-22 00:00:00 C009       P101             4       100
    ##  7    1008 2023-03-08 00:00:00 C007       P111             2      -600
    ##  8    1009 2023-03-08 00:00:00 C007       P108             1       500
    ##  9    1010 2023-01-16 00:00:00 C010       P110             4      -800
    ## 10    1011 2023-03-20 00:00:00 C011       P106             3       400
    ## # ℹ 60 more rows
    ## # ℹ 2 more variables: TotalPrice <dbl>, Region <chr>
…
  filter(Category == "Electronics") |> 
  select(OrderID,
         Date,
         CustomerID,
         Name,
         Product,
         Quantity,
         UnitPrice,
         TotalPrice,
         Profit,
         Region.y,
         AgeGroup)
```

    ## # A tibble: 29 × 11
    ##    OrderID Date       CustomerID Name      Product Quantity UnitPrice TotalPrice
    ##      <int> <date>     <chr>      <chr>     <chr>      <int>     <int>      <int>
    ##  1    1004 2023-02-19 C010       Jane Bak… Table          5       200       1000
    ##  2    1006 2023-01-13 C018       Rachel N… Desk           2       300        600
    ##  3    1010 2023-01-16 C010       Jane Bak… Printer        4       800       3200
    ##  4    1011 2023-03-20 C011       Kevin Ca… Table          3       400       1200
    ##  5    1012 2023-01-25 C001       Alice Sm… Speaker        1       400        400
    ##  6    1013 2023-02-11 C019       Steve Pa… Smartp…        5       500       2500
    ##  7    1014 2023-02-04 C010       Jane Bak… Printer        3       700       2100
    ##  8    1023 2023-03-30 C005       Ethan Br… Sofa           3       300        900
    ##  9    1027 2023-02-01 C001       Alice Sm… Sofa           3       600       1800
    ## 10    1028 2023-01-22 C010       Jane Bak… Lamp           4       800       3200
    ## # ℹ 19 more rows
    ## # ℹ 3 more variables: Profit <dbl>, Region.y <chr>, AgeGroup <chr>

### 13. Arrange Data

Arranging descending by `TotalPrice`:

``` r
customer_sales_enriched |>
  arrange(desc(TotalPrice))
```

    ## # A tibble: 67 × 18
    ##    OrderID Date       CustomerID ProductID Quantity UnitPrice TotalPrice
    ##      <int> <date>     <chr>      <chr>        <int>     <int>      <int>
    ##  1    1017 2023-03-23 C011       P111             5       800       4000
    ##  2    1046 2023-01-25 C005       P118             5       800       4000
    ##  3    1058 2023-03-24 C007       P104             5       800       4000
    ##  4    1049 2023-02-12 C018       P116             5       700       3500
    ##  5    1010 2023-01-16 C010       P110             4       800       3200
    ##  6    1028 2023-01-22 C010       P116             4       800       3200
    ##  7    1051 2023-01-07 C006       P101             4       800       3200
    ##  8    1038 2023-02-22 C020       P108             4       800       3200
    ##  9    1041 2023-03-10 C001       P106             4       800       3200
    ## 10    1045 2023-01-04 C001       P107             4       700       2800
    ## # ℹ 57 more rows
    ## # ℹ 11 more variables: Region.x <chr>, Name <chr>, Email <chr>, Age <dbl>,
    ## #   Gender <chr>, Region.y <chr>, Product <chr>, Category <chr>,
    ## #   SupplierID <chr>, Profit <dbl>, AgeGroup <chr>
…
Converting it back to long format

``` r
long <- wide |> 
  pivot_longer(
    cols = c("East", "North", "South", "West"),
    names_to = 'Region',
    values_to = 'TotalPrice'
  ) |> 
  filter(!is.na(TotalPrice))
long
```

    ## # A tibble: 48 × 3
    ## # Groups:   ProductID [20]
    ##    ProductID Region TotalPrice
    ##    <chr>     <chr>       <int>
    ##  1 P101      East         3200
    ##  2 P101      North         400
    ##  3 P101      South        2000
    ##  4 P101      West          600
    ##  5 P102      East          700
    ##  6 P102      South        2800
    ##  7 P102      West         1800
    ##  8 P103      East          400
    ##  9 P103      South         600
    ## 10 P104      South        2500
    ## # ℹ 38 more rows
…
